
************* 08-08-2019 10:43:18 *************
08-08-2019 10:43:18-- API Call Success.------API called http://localhost:44762//search/createindex/rscatalogwithplpfixes4/PRODUCTION/7/2367/2367 
***********************************************

************* 08-08-2019 10:43:18 *************
Indexer|7|rscatalogwithplpfixes4|7|2367|Manually|http://localhost:44762/|2|2367|PRODUCTION|bG9jYWxob3N0OjY3NjZ8|0|600000
***********************************************

************* 08-08-2019 13:11:38 *************
08-08-2019 13:11:38-- API Call Success.------API called http://localhost:44762//search/createindex/rscatalogwithplpfixes4/PRODUCTION/7/2368/2368 
***********************************************

************* 08-08-2019 13:11:38 *************
Indexer|7|rscatalogwithplpfixes4|7|2368|Manually|http://localhost:44762/|2|2368|PRODUCTION|bG9jYWxob3N0OjY3NjZ8|0|600000
***********************************************
